episode: 0
ave: 0.3319351331657306
max: 0.6993965617724047
elite: [0.37997505034853174,0.5335025442910617,0.13486051639799124,0.06048242023855521,0.20637032147311385,0.22110963445822973,0.27350250048405167,0.8513744806378019,0.762965939319882,0.9563392356185598,0.23658120246616443,0.22005331043694354]
App.tsx:110 episode: 1
ave: 0.345076477236821
max: 0.6948999767295387
elite: [0.43324101626437095,0.9999023787113144,0.14925929376430935,0.235121819654186,0.03527802947509162,0.27587860881986837,0.2767436551826361,0.24900665659891352,0.5229825301924129,0.13275195473583845,0.9995414413512573,0.6103707839599182]
App.tsx:110 episode: 2
ave: 0.361827469234096
max: 0.693551630224735
elite: [0.9394585841735796,0.834643710140395,0.399059290847779,0.09381516975117266,0.03071002167288528,0.14635070659825522,0.3463771589379465,0.9539961980520795,0.9651784387012223,0.07940601218152943,0.8805695571387231,0.9746197741614764]
App.tsx:110 episode: 3
ave: 0.3820363102243909
max: 0.7305399426123536
elite: [0.9499407673019138,0.7421817048650432,0.14342703554957836,0.16814815927849747,0.08715055930379245,0.07808407150623053,0.30405015634795585,0.46015622575501447,0.2023980545474069,0.041881645191792494,0.1792025943476554,0.38783993459680466]
App.tsx:110 episode: 4
ave: 0.40316959011473785
max: 0.8898643727508178
elite: [0.04853520339289097,0.6401058848666001,0.0025837415326939173,0.23382924614849476,0.11471732293673864,0.02295502809416261,0.18829523168352758,0.07785954031120967,0.7389241224817398,0.0872081942354479,0.9275968945675095,0.954786138685281]
App.tsx:110 episode: 5
ave: 0.42565158519326424
max: 0.8473641212069766
elite: [0.04853520339289097,0.6401058848666001,0.0025837415326939173,0.23382924614849476,0.11471732293673864,0.02295502809416261,0.18829523168352758,0.07785954031120967,0.7389241224817398,0.0872081942354479,0.9275968945675095,0.954786138685281]
App.tsx:110 episode: 6
ave: 0.4442560904538901
max: 0.9054230323471611
elite: [0.04853520339289097,0.8276828332328132,0.0025837415326939173,0.23382924614849476,0.11471732293673864,0.02295502809416261,0.18829523168352758,0.07785954031120967,0.5477990164491986,0.0872081942354479,0.9275968945675095,0.7068491517304103]
App.tsx:110 episode: 7
ave: 0.4707685487984192
max: 0.9011964857362778
elite: [0.07216122995291285,0.9999023787113144,0.14925929376430935,0.235121819654186,0.03527802947509162,0.07808407150623053,0.08418117960691807,0.953524373827835,0.20116606955679806,0.041881645191792494,0.04690409086080716,0.7681908924064855]
App.tsx:110 episode: 8
ave: 0.483167111968866
max: 0.9286625077960197
elite: [0.07216122995291285,0.9999023787113144,0.14925929376430935,0.235121819654186,0.03527802947509162,0.07808407150623053,0.08418117960691807,0.953524373827835,0.20116606955679806,0.041881645191792494,0.04690409086080716,0.7681908924064855]
App.tsx:110 episode: 9
ave: 0.4894593527091824
max: 0.9097589068253881
elite: [0.04853520339289097,0.8276828332328132,0.0025837415326939173,0.23382924614849476,0.11471732293673864,0.02295502809416261,0.18829523168352758,0.07785954031120967,0.5477990164491986,0.0872081942354479,0.9275968945675095,0.7068491517304103]
App.tsx:110 episode: 10
ave: 0.5082517659619029
max: 0.9183691563940787
elite: [0.07216122995291285,0.9999023787113144,0.14925929376430935,0.235121819654186,0.03527802947509162,0.07808407150623053,0.08418117960691807,0.953524373827835,0.5098142056668373,0.004408844167659298,0.715260765067562,0.9634847154385482]
App.tsx:110 episode: 11
ave: 0.5141839061039367
max: 0.9063739744960623
elite: [0.07216122995291285,0.9999023787113144,0.14925929376430935,0.235121819654186,0.03527802947509162,0.07808407150623053,0.08418117960691807,0.953524373827835,0.20116606955679806,0.041881645191792494,0.04690409086080716,0.7681908924064855]
App.tsx:110 episode: 12
ave: 0.5249780682721522
max: 0.9451906232809086
elite: [0.07216122995291285,0.9999023787113144,0.14925929376430935,0.235121819654186,0.03527802947509162,0.07808407150623053,0.08418117960691807,0.25221443239096386,0.446321100176748,0.004408844167659298,0.715260765067562,0.9634847154385482]
App.tsx:110 episode: 13
ave: 0.5426993580294834
max: 0.9723329799795021
elite: [0.07216122995291285,0.9999023787113144,0.14925929376430935,0.235121819654186,0.03527802947509162,0.07808407150623053,0.08418117960691807,0.25221443239096386,0.446321100176748,0.004408844167659298,0.715260765067562,0.9634847154385482]
App.tsx:110 episode: 14
ave: 0.5498601121109273
max: 0.9488640903847427
elite: [0.07216122995291285,0.9999023787113144,0.14925929376430935,0.235121819654186,0.03527802947509162,0.07808407150623053,0.08418117960691807,0.25221443239096386,0.446321100176748,0.004408844167659298,0.715260765067562,0.9634847154385482]
App.tsx:110 episode: 15
ave: 0.5513532786088995
max: 1.005449905854644
elite: [0.07216122995291285,0.9999023787113144,0.14925929376430935,0.235121819654186,0.03527802947509162,0.07808407150623053,0.08418117960691807,0.25221443239096386,0.446321100176748,0.004408844167659298,0.715260765067562,0.9634847154385482]
App.tsx:110 episode: 16
ave: 0.5673073037650495
max: 1.0090886365421272
elite: [0.07216122995291285,0.9999023787113144,0.14925929376430935,0.235121819654186,0.03527802947509162,0.07808407150623053,0.08418117960691807,0.25221443239096386,0.14252719367401978,0.18106717616641443,0.715260765067562,0.9634847154385482]
App.tsx:110 episode: 17
ave: 0.5811046236645059
max: 1.0042839628519042
elite: [0.07216122995291285,0.9999023787113144,0.14925929376430935,0.235121819654186,0.03527802947509162,0.07808407150623053,0.08418117960691807,0.25221443239096386,0.14252719367401978,0.18106717616641443,0.715260765067562,0.9634847154385482]
App.tsx:110 episode: 18
ave: 0.5972189181158304
max: 1.0731523023724177
elite: [0.43324101626437095,0.6401058848666001,0.0025837415326939173,0.235121819654186,0.02532717892329761,0.02295502809416261,0.18829523168352758,0.07785954031120967,0.20116606955679806,0.09306393563255333,0.07473861420698924,0.954786138685281]
App.tsx:110 episode: 19
ave: 0.6233009693329432
max: 1.0281935330322365
elite: [0.43324101626437095,0.6401058848666001,0.0025837415326939173,0.235121819654186,0.02532717892329761,0.02295502809416261,0.18829523168352758,0.07785954031120967,0.20116606955679806,0.004408844167659298,0.07473861420698924,0.954786138685281]
App.tsx:110 episode: 20
ave: 0.6463745529921613
max: 1.0760839823618273
elite: [0.43324101626437095,0.6401058848666001,0.0025837415326939173,0.235121819654186,0.02532717892329761,0.02295502809416261,0.18829523168352758,0.07785954031120967,0.20116606955679806,0.004408844167659298,0.07473861420698924,0.954786138685281]
App.tsx:110 episode: 21
ave: 0.6654794996200384
max: 1.0426988253254903
elite: [0.43324101626437095,0.9452510933631142,0.0025837415326939173,0.235121819654186,0.02532717892329761,0.02295502809416261,0.18829523168352758,0.07785954031120967,0.20116606955679806,0.004408844167659298,0.07473861420698924,0.6739966174464544]
App.tsx:110 episode: 22
ave: 0.682916728781468
max: 1.094608107132561
elite: [0.07216122995291285,0.9297958847802363,0.0025837415326939173,0.23382924614849476,0.04891266879316558,0.02295502809416261,0.18829523168352758,0.07785954031120967,0.14252719367401978,0.11042048470105037,0.715260765067562,0.9634847154385482]
App.tsx:110 episode: 23
ave: 0.7070757826503393
max: 1.1094655507234568
elite: [0.07216122995291285,0.9999023787113144,0.14925929376430935,0.23382924614849476,0.03527802947509162,0.02295502809416261,0.08418117960691807,0.25221443239096386,0.14252719367401978,0.09306393563255333,0.48426488486464647,0.954786138685281]
App.tsx:110 episode: 24
ave: 0.7312396852444185
max: 1.1181807179831793
elite: [0.20899869104679913,0.9452510933631142,0.0025837415326939173,0.235121819654186,0.02532717892329761,0.02295502809416261,0.18829523168352758,0.07785954031120967,0.20116606955679806,0.004408844167659298,0.07473861420698924,0.6739966174464544]
App.tsx:110 episode: 25
ave: 0.7409364832924926
max: 1.1808898249250328
elite: [0.07216122995291285,0.9297958847802363,0.0025837415326939173,0.23382924614849476,0.04891266879316558,0.02295502809416261,0.18829523168352758,0.07785954031120967,0.14252719367401978,0.11042048470105037,0.715260765067562,0.9634847154385482]
App.tsx:110 episode: 26
ave: 0.7605485463917145
max: 1.1412106824770543
elite: [0.07216122995291285,0.9999023787113144,0.0025837415326939173,0.235121819654186,0.02532717892329761,0.02295502809416261,0.18829523168352758,0.07785954031120967,0.20116606955679806,0.004408844167659298,0.07473861420698924,0.954786138685281]
App.tsx:110 episode: 27
ave: 0.7498102940314589
max: 1.1728600020266238
elite: [0.07216122995291285,0.9999023787113144,0.14925929376430935,0.23382924614849476,0.03527802947509162,0.02295502809416261,0.08418117960691807,0.0774833508207271,0.14252719367401978,0.004408844167659298,0.3311056400578758,0.954786138685281]
App.tsx:110 episode: 28
ave: 0.7620747193918117
max: 1.1546243052384138
elite: [0.07216122995291285,0.9999023787113144,0.0025837415326939173,0.235121819654186,0.03527802947509162,0.02295502809416261,0.18829523168352758,0.07785954031120967,0.20116606955679806,0.09306393563255333,0.07473861420698924,0.954786138685281]
App.tsx:110 episode: 29
ave: 0.8101272614824557
max: 1.1640251558913404
elite: [0.07216122995291285,0.9999023787113144,0.14925929376430935,0.23382924614849476,0.03527802947509162,0.02295502809416261,0.08418117960691807,0.0774833508207271,0.20116606955679806,0.041881645191792494,0.3311056400578758,0.954786138685281]
App.tsx:110 episode: 30
ave: 0.8393122146402469
max: 1.160932638948017
elite: [0.07216122995291285,0.9999023787113144,0.14925929376430935,0.16814815927849747,0.03071002167288528,0.02295502809416261,0.08418117960691807,0.07785954031120967,0.20116606955679806,0.004408844167659298,0.715260765067562,0.9634847154385482]
App.tsx:110 episode: 31
ave: 0.8457506988536544
max: 1.194529456800518
elite: [0.07216122995291285,0.9297958847802363,0.14925929376430935,0.235121819654186,0.03655332017407198,0.02295502809416261,0.1094382569379968,0.0774833508207271,0.14252719367401978,0.041881645191792494,0.2255451213498869,0.9634847154385482]
App.tsx:110 episode: 32
ave: 0.8741070390192617
max: 1.1723485164751044
elite: [0.07216122995291285,0.9999023787113144,0.0025837415326939173,0.235121819654186,0.03527802947509162,0.02295502809416261,0.18829523168352758,0.07785954031120967,0.20116606955679806,0.004408844167659298,0.04690409086080716,0.9634847154385482]
App.tsx:110 episode: 33
ave: 0.8951165323575956
max: 1.1682401534930427
elite: [0.07216122995291285,0.9297958847802363,0.14925929376430935,0.235121819654186,0.03655332017407198,0.02295502809416261,0.12572822946987094,0.25221443239096386,0.14252719367401978,0.004408844167659298,0.07473861420698924,0.9634847154385482]
App.tsx:110 episode: 34
ave: 0.904010914375127
max: 1.1836733845024994
elite: [0.07216122995291285,0.9999023787113144,0.14925929376430935,0.235121819654186,0.03527802947509162,0.02295502809416261,0.18829523168352758,0.07785954031120967,0.20116606955679806,0.004408844167659298,0.07473861420698924,0.9634847154385482]
App.tsx:110 episode: 35
ave: 0.9222487903249548
max: 1.178796323591827
elite: [0.07216122995291285,0.9999023787113144,0.14925929376430935,0.235121819654186,0.03527802947509162,0.02295502809416261,0.12572822946987094,0.07785954031120967,0.14252719367401978,0.004408844167659298,0.07473861420698924,0.9634847154385482]
App.tsx:110 episode: 36
ave: 0.9459790844455541
max: 1.1785281716055442
elite: [0.07216122995291285,0.9999023787113144,0.14925929376430935,0.235121819654186,0.03527802947509162,0.02295502809416261,0.12572822946987094,0.07785954031120967,0.14252719367401978,0.004408844167659298,0.07473861420698924,0.9634847154385482]
App.tsx:110 episode: 37
ave: 0.9497221280108569
max: 1.1839354618975881
elite: [0.07216122995291285,0.9999023787113144,0.14925929376430935,0.23382924614849476,0.03527802947509162,0.02295502809416261,0.08418117960691807,0.07785954031120967,0.20116606955679806,0.004408844167659298,0.3311056400578758,0.954786138685281]
App.tsx:110 episode: 38
ave: 0.9619965790399699
max: 1.1832940882949148
elite: [0.07216122995291285,0.9999023787113144,0.14925929376430935,0.23382924614849476,0.03527802947509162,0.02295502809416261,0.08418117960691807,0.07785954031120967,0.20116606955679806,0.004408844167659298,0.07473861420698924,0.9634847154385482]
App.tsx:110 episode: 39
ave: 0.9821725885913116
max: 1.1697361683488579
elite: [0.07216122995291285,0.9999023787113144,0.14925929376430935,0.23382924614849476,0.03071002167288528,0.02295502809416261,0.18829523168352758,0.07785954031120967,0.14252719367401978,0.004408844167659298,0.07473861420698924,0.954786138685281]
App.tsx:110 episode: 40
ave: 0.9966272669498324
max: 1.1722385901437382
elite: [0.07216122995291285,0.9999023787113144,0.14925929376430935,0.23382924614849476,0.03527802947509162,0.02295502809416261,0.08418117960691807,0.07785954031120967,0.20116606955679806,0.004408844167659298,0.07473861420698924,0.954786138685281]
App.tsx:110 episode: 41
ave: 1.0058445700520766
max: 1.1840415168137193
elite: [0.07216122995291285,0.9999023787113144,0.14925929376430935,0.23382924614849476,0.03527802947509162,0.02295502809416261,0.18829523168352758,0.0774833508207271,0.041828707872381576,0.004408844167659298,0.07473861420698924,0.9634847154385482]
App.tsx:110 episode: 42
ave: 0.9982072403658657
max: 1.1731126820725075
elite: [0.07216122995291285,0.9999023787113144,0.14925929376430935,0.23382924614849476,0.05416567137317774,0.02295502809416261,0.20837097298016594,0.07785954031120967,0.20116606955679806,0.004408844167659298,0.07473861420698924,0.954786138685281]
App.tsx:110 episode: 43
ave: 1.0045147627357052
max: 1.196405859250268
elite: [0.011486723707817337,0.9999023787113144,0.14925929376430935,0.235121819654186,0.03527802947509162,0.02295502809416261,0.08418117960691807,0.07785954031120967,0.20116606955679806,0.004408844167659298,0.07473861420698924,0.954786138685281]
App.tsx:110 episode: 44
ave: 0.9952157569350015
max: 1.1809060632276365
elite: [0.07216122995291285,0.9999023787113144,0.14925929376430935,0.23382924614849476,0.03527802947509162,0.02295502809416261,0.18829523168352758,0.0774833508207271,0.041828707872381576,0.004408844167659298,0.07473861420698924,0.954786138685281]
App.tsx:110 episode: 45
ave: 1.011503354351981
max: 1.1772116960941772
elite: [0.07216122995291285,0.9999023787113144,0.14925929376430935,0.235121819654186,0.03655332017407198,0.02295502809416261,0.12572822946987094,0.07785954031120967,0.14252719367401978,0.004408844167659298,0.07473861420698924,0.954786138685281]
App.tsx:110 episode: 46
ave: 1.017057477808714
max: 1.2263897251417577
elite: [0.07216122995291285,0.9999023787113144,0.15601970569503787,0.23382924614849476,0.03527802947509162,0.02295502809416261,0.18829523168352758,0.0774833508207271,0.041828707872381576,0.004408844167659298,0.22670025420293838,0.954786138685281]
App.tsx:110 episode: 47
ave: 1.0268551485560682
max: 1.1928052701849952
elite: [0.011486723707817337,0.9999023787113144,0.14925929376430935,0.23382924614849476,0.03527802947509162,0.02295502809416261,0.08418117960691807,0.07785954031120967,0.14252719367401978,0.004408844167659298,0.07473861420698924,0.954786138685281]
App.tsx:110 episode: 48
ave: 1.0235275443574763
max: 1.2084994192872913
elite: [0.07216122995291285,0.9999023787113144,0.14925929376430935,0.23382924614849476,0.03527802947509162,0.02295502809416261,0.04911051755599827,0.0774833508207271,0.041828707872381576,0.004408844167659298,0.07473861420698924,0.954786138685281]
App.tsx:110 episode: 49
ave: 1.0342244539847432
max: 1.2053739716895924
elite: [0.07216122995291285,0.9452510933631142,0.14925929376430935,0.235121819654186,0.03527802947509162,0.02295502809416261,0.08418117960691807,0.07785954031120967,0.14252719367401978,0.004408844167659298,0.07473861420698924,0.954786138685281]
App.tsx:110 episode: 50
ave: 1.028084836181597
max: 1.185187549063033
elite: [0.07216122995291285,0.9999023787113144,0.14925929376430935,0.235121819654186,0.03527802947509162,0.02295502809416261,0.08418117960691807,0.0774833508207271,0.14252719367401978,0.004408844167659298,0.04690409086080716,0.9634847154385482]
App.tsx:110 episode: 51
ave: 1.0150559244086368
max: 1.2350319261910878
elite: [0.011486723707817337,0.9999023787113144,0.14925929376430935,0.23382924614849476,0.02532717892329761,0.02295502809416261,0.18829523168352758,0.0774833508207271,0.041828707872381576,0.004408844167659298,0.07473861420698924,0.954786138685281]
App.tsx:110 episode: 52
ave: 1.0261950888547384
max: 1.1999224180371326
elite: [0.07216122995291285,0.9999023787113144,0.14925929376430935,0.23382924614849476,0.03071002167288528,0.02295502809416261,0.18829523168352758,0.07785954031120967,0.20116606955679806,0.004408844167659298,0.04690409086080716,0.954786138685281]
App.tsx:110 episode: 53
ave: 1.0561134707983602
max: 1.2254526729427768
elite: [0.011486723707817337,0.9999023787113144,0.14925929376430935,0.23382924614849476,0.02532717892329761,0.02295502809416261,0.18829523168352758,0.0774833508207271,0.041828707872381576,0.004408844167659298,0.07473861420698924,0.954786138685281]
App.tsx:110 episode: 54
ave: 1.0608161690324711
max: 1.224410637961921
elite: [0.07216122995291285,0.9999023787113144,0.15601970569503787,0.23382924614849476,0.03527802947509162,0.02295502809416261,0.04911051755599827,0.0774833508207271,0.041828707872381576,0.004408844167659298,0.07473861420698924,0.9634847154385482]
App.tsx:110 episode: 55
ave: 1.0589230376760885
max: 1.221747092360305
elite: [0.07216122995291285,0.9999023787113144,0.14925929376430935,0.235121819654186,0.03071002167288528,0.02295502809416261,0.04911051755599827,0.0774833508207271,0.041828707872381576,0.004408844167659298,0.07473861420698924,0.954786138685281]
App.tsx:110 episode: 56
ave: 1.0655289155534913
max: 1.226825017919639
elite: [0.07216122995291285,0.9999023787113144,0.14925929376430935,0.235121819654186,0.02532717892329761,0.02295502809416261,0.04911051755599827,0.0774833508207271,0.041828707872381576,0.004408844167659298,0.07473861420698924,0.954786138685281]
App.tsx:110 episode: 57
ave: 1.068629149451653
max: 1.225669976699769
elite: [0.07216122995291285,0.9999023787113144,0.14925929376430935,0.23382924614849476,0.03527802947509162,0.02295502809416261,0.04911051755599827,0.0774833508207271,0.041828707872381576,0.004408844167659298,0.07473861420698924,0.954786138685281]
App.tsx:110 episode: 58
ave: 1.0658224416580844
max: 1.2107813175024926
elite: [0.011486723707817337,0.9999023787113144,0.14925929376430935,0.23382924614849476,0.02532717892329761,0.02295502809416261,0.04911051755599827,0.0774833508207271,0.14252719367401978,0.004408844167659298,0.04690409086080716,0.9634847154385482]
App.tsx:110 episode: 59
ave: 1.0704786886953368
max: 1.2296671614278503
elite: [0.07216122995291285,0.9999023787113144,0.14925929376430935,0.235121819654186,0.03527802947509162,0.02295502809416261,0.08418117960691807,0.07785954031120967,0.041828707872381576,0.004408844167659298,0.07473861420698924,0.954786138685281]
App.tsx:110 episode: 60
ave: 1.0862345419899913
max: 1.2202406770137217
elite: [0.07216122995291285,0.9999023787113144,0.2095988333958383,0.23382924614849476,0.02532717892329761,0.02295502809416261,0.04911051755599827,0.0774833508207271,0.041828707872381576,0.004408844167659298,0.07473861420698924,0.9634847154385482]
App.tsx:110 episode: 61
ave: 1.0979738387809277
max: 1.2239688776534938
elite: [0.07216122995291285,0.9999023787113144,0.14925929376430935,0.23382924614849476,0.03527802947509162,0.02295502809416261,0.04911051755599827,0.0774833508207271,0.041828707872381576,0.004408844167659298,0.07473861420698924,0.954786138685281]
App.tsx:110 episode: 62
ave: 1.1005460675942886
max: 1.2264574133715767
elite: [0.07216122995291285,0.9999023787113144,0.14925929376430935,0.235121819654186,0.02532717892329761,0.02295502809416261,0.04911051755599827,0.0774833508207271,0.041828707872381576,0.004408844167659298,0.07473861420698924,0.954786138685281]
App.tsx:110 episode: 63
ave: 1.092536720055673
max: 1.2567550114908521
elite: [0.07216122995291285,0.9999023787113144,0.14925929376430935,0.23382924614849476,0.03527802947509162,0.02295502809416261,0.04911051755599827,0.0774833508207271,0.041828707872381576,0.004408844167659298,0.07473861420698924,0.954786138685281]
App.tsx:110 episode: 64
ave: 1.0925881017461285
max: 1.2320094959987526
elite: [0.07216122995291285,0.9999023787113144,0.14925929376430935,0.235121819654186,0.02532717892329761,0.02295502809416261,0.04911051755599827,0.0774833508207271,0.041828707872381576,0.004408844167659298,0.07473861420698924,0.954786138685281]
App.tsx:110 episode: 65
ave: 1.0859208183300226
max: 1.2404190385360438
elite: [0.07216122995291285,0.9999023787113144,0.14925929376430935,0.235121819654186,0.03527802947509162,0.02295502809416261,0.04911051755599827,0.0774833508207271,0.041828707872381576,0.004408844167659298,0.07473861420698924,0.9634847154385482]
App.tsx:110 episode: 66
ave: 1.0882882548325825
max: 1.2192581170783403
elite: [0.07216122995291285,0.9999023787113144,0.14925929376430935,0.235121819654186,0.02532717892329761,0.02295502809416261,0.04911051755599827,0.0774833508207271,0.041828707872381576,0.004408844167659298,0.07473861420698924,0.954786138685281]
App.tsx:110 episode: 67
ave: 1.0867159646009332
max: 1.2211806562689318
elite: [0.011486723707817337,0.9999023787113144,0.14925929376430935,0.23382924614849476,0.03527802947509162,0.02295502809416261,0.18829523168352758,0.0774833508207271,0.041828707872381576,0.004408844167659298,0.07473861420698924,0.9335504010055462]
App.tsx:110 episode: 68
ave: 1.0914995456855123
max: 1.243604647969966
elite: [0.07216122995291285,0.9999023787113144,0.14925929376430935,0.235121819654186,0.03071002167288528,0.02295502809416261,0.04911051755599827,0.0774833508207271,0.041828707872381576,0.004408844167659298,0.07473861420698924,0.9634847154385482]
App.tsx:110 episode: 69
ave: 1.0880667596039921
max: 1.2409102415429758
elite: [0.07216122995291285,0.9999023787113144,0.14925929376430935,0.23382924614849476,0.03527802947509162,0.02295502809416261,0.04911051755599827,0.0774833508207271,0.041828707872381576,0.004408844167659298,0.07473861420698924,0.954786138685281]
App.tsx:110 episode: 70
ave: 1.0779923982052633
max: 1.2425572724942515
elite: [0.07216122995291285,0.9999023787113144,0.2095988333958383,0.235121819654186,0.02532717892329761,0.02295502809416261,0.04911051755599827,0.0774833508207271,0.041828707872381576,0.004408844167659298,0.07473861420698924,0.9634847154385482]
App.tsx:110 episode: 71
ave: 1.067388811457518
max: 1.2138526470144675
elite: [0.07216122995291285,0.9999023787113144,0.14925929376430935,0.235121819654186,0.02532717892329761,0.02295502809416261,0.12572822946987094,0.0774833508207271,0.041828707872381576,0.004408844167659298,0.07473861420698924,0.9634847154385482]
App.tsx:110 episode: 72
ave: 1.0743830299469672
max: 1.220273139808413
elite: [0.07216122995291285,0.9999023787113144,0.14925929376430935,0.23382924614849476,0.03527802947509162,0.02295502809416261,0.04911051755599827,0.0774833508207271,0.041828707872381576,0.004408844167659298,0.07473861420698924,0.954786138685281]
App.tsx:110 episode: 73
ave: 1.094386666922729
max: 1.2145817222367092
elite: [0.07216122995291285,0.9999023787113144,0.14925929376430935,0.23382924614849476,0.02532717892329761,0.02295502809416261,0.04911051755599827,0.0774833508207271,0.041828707872381576,0.004408844167659298,0.07473861420698924,0.954786138685281]
App.tsx:110 episode: 74
ave: 1.0891614900862148
max: 1.2372085291596608
elite: [0.07216122995291285,0.9999023787113144,0.14925929376430935,0.23382924614849476,0.02532717892329761,0.02295502809416261,0.04911051755599827,0.07785954031120967,0.11870464997948038,0.004408844167659298,0.14899375974448748,0.9634847154385482]
App.tsx:110 episode: 75
ave: 1.0877016398078487
max: 1.229769894181901
elite: [0.07216122995291285,0.9999023787113144,0.14925929376430935,0.235121819654186,0.02532717892329761,0.02295502809416261,0.04911051755599827,0.0774833508207271,0.041828707872381576,0.004408844167659298,0.07473861420698924,0.954786138685281]
App.tsx:110 episode: 76
ave: 1.0841819022285102
max: 1.2334983965567896
elite: [0.011486723707817337,0.9999023787113144,0.14925929376430935,0.23382924614849476,0.02532717892329761,0.02295502809416261,0.04911051755599827,0.0774833508207271,0.041828707872381576,0.004408844167659298,0.07473861420698924,0.954786138685281]
App.tsx:110 episode: 77
ave: 1.07376211152321
max: 1.2217882070846124
elite: [0.07216122995291285,0.9999023787113144,0.14925929376430935,0.23382924614849476,0.02532717892329761,0.02295502809416261,0.04911051755599827,0.07785954031120967,0.041828707872381576,0.004408844167659298,0.07473861420698924,0.954786138685281]
App.tsx:110 episode: 78
ave: 1.0739775653700345
max: 1.232005153719903
elite: [0.011486723707817337,0.9999023787113144,0.14925929376430935,0.23382924614849476,0.02532717892329761,0.02295502809416261,0.04911051755599827,0.0774833508207271,0.041828707872381576,0.004408844167659298,0.07473861420698924,0.9634847154385482]
App.tsx:110 episode: 79
ave: 1.0636297640535084
max: 1.2310711349515964
elite: [0.07216122995291285,0.9999023787113144,0.14925929376430935,0.23382924614849476,0.02532717892329761,0.02295502809416261,0.04911051755599827,0.0774833508207271,0.041828707872381576,0.004408844167659298,0.07473861420698924,0.954786138685281]
App.tsx:110 episode: 80
ave: 1.0660664885521687
max: 1.2492065866194213
elite: [0.07216122995291285,0.9999023787113144,0.14925929376430935,0.23382924614849476,0.02532717892329761,0.02295502809416261,0.04911051755599827,0.07785954031120967,0.041828707872381576,0.004408844167659298,0.07473861420698924,0.954786138685281]
App.tsx:110 episode: 81
ave: 1.0651251942648534
max: 1.2152596777922224
elite: [0.07216122995291285,0.9999023787113144,0.14925929376430935,0.235121819654186,0.02532717892329761,0.02295502809416261,0.04911051755599827,0.0774833508207271,0.041828707872381576,0.004408844167659298,0.07473861420698924,0.954786138685281]
App.tsx:110 episode: 82
ave: 1.072729382492449
max: 1.2233745413148431
elite: [0.011486723707817337,0.9456784519351955,0.14925929376430935,0.23382924614849476,0.03527802947509162,0.02295502809416261,0.04911051755599827,0.07785954031120967,0.041828707872381576,0.004408844167659298,0.07473861420698924,0.9634847154385482]
App.tsx:110 episode: 83
ave: 1.0891542791684972
max: 1.249770083709415
elite: [0.07216122995291285,0.9999023787113144,0.14925929376430935,0.23382924614849476,0.02532717892329761,0.02295502809416261,0.18829523168352758,0.0774833508207271,0.041828707872381576,0.004408844167659298,0.07473861420698924,0.954786138685281]
App.tsx:110 episode: 84
ave: 1.0873973226678613
max: 1.2351038875298892
elite: [0.011486723707817337,0.9999023787113144,0.14925929376430935,0.23382924614849476,0.03071002167288528,0.02295502809416261,0.04911051755599827,0.07785954031120967,0.041828707872381576,0.004408844167659298,0.07473861420698924,0.954786138685281]
App.tsx:110 episode: 85
ave: 1.0918466555944608
max: 1.2526810008323335
elite: [0.07216122995291285,0.9999023787113144,0.14925929376430935,0.235121819654186,0.03527802947509162,0.02295502809416261,0.04911051755599827,0.0774833508207271,0.041828707872381576,0.004408844167659298,0.07473861420698924,0.9634847154385482]
App.tsx:110 episode: 86
ave: 1.10163830041025
max: 1.2444830567289877
elite: [0.07216122995291285,0.9999023787113144,0.14925929376430935,0.235121819654186,0.02532717892329761,0.02295502809416261,0.04911051755599827,0.0774833508207271,0.041828707872381576,0.004408844167659298,0.07473861420698924,0.9634847154385482]
App.tsx:110 episode: 87
ave: 1.1001730237570089
max: 1.2370377788629365
elite: [0.011486723707817337,0.9456784519351955,0.14925929376430935,0.235121819654186,0.02532717892329761,0.02295502809416261,0.04911051755599827,0.0774833508207271,0.041828707872381576,0.004408844167659298,0.07473861420698924,0.954786138685281]
App.tsx:110 episode: 88
ave: 1.1173617354045637
max: 1.239342465025778
elite: [0.07216122995291285,0.9999023787113144,0.19298492747055862,0.23382924614849476,0.03527802947509162,0.02295502809416261,0.04911051755599827,0.07785954031120967,0.041828707872381576,0.004408844167659298,0.07473861420698924,0.9634847154385482]
App.tsx:110 episode: 89
ave: 1.1082865236605453
max: 1.24347914140086
elite: [0.07216122995291285,0.9999023787113144,0.14925929376430935,0.23382924614849476,0.02532717892329761,0.02295502809416261,0.04911051755599827,0.0774833508207271,0.041828707872381576,0.004408844167659298,0.07473861420698924,0.954786138685281]
App.tsx:110 episode: 90
ave: 1.0975859364088916
max: 1.2332387959163478
elite: [0.07216122995291285,0.9999023787113144,0.19298492747055862,0.235121819654186,0.02532717892329761,0.02295502809416261,0.04911051755599827,0.0774833508207271,0.041828707872381576,0.004408844167659298,0.2845701915810752,0.9634847154385482]
App.tsx:110 episode: 91
ave: 1.1024560391670517
max: 1.2537283752314767
elite: [0.07216122995291285,0.9999023787113144,0.14925929376430935,0.235121819654186,0.02532717892329761,0.02295502809416261,0.04911051755599827,0.0774833508207271,0.041828707872381576,0.004408844167659298,0.07473861420698924,0.954786138685281]
App.tsx:110 episode: 92
ave: 1.1045066091478208
max: 1.266505129872684
elite: [0.07216122995291285,0.9999023787113144,0.14925929376430935,0.23382924614849476,0.02532717892329761,0.02295502809416261,0.04911051755599827,0.0774833508207271,0.041828707872381576,0.004408844167659298,0.07473861420698924,0.954786138685281]
App.tsx:110 episode: 93
ave: 1.1051996286001442
max: 1.2305884387371393
elite: [0.011486723707817337,0.9999023787113144,0.14925929376430935,0.23382924614849476,0.02532717892329761,0.02295502809416261,0.04911051755599827,0.0774833508207271,0.041828707872381576,0.004408844167659298,0.07473861420698924,0.9634847154385482]
App.tsx:110 episode: 94
ave: 1.0963522918077921
max: 1.2493578267679943
elite: [0.07216122995291285,0.9999023787113144,0.14925929376430935,0.23382924614849476,0.02532717892329761,0.02295502809416261,0.04911051755599827,0.0774833508207271,0.041828707872381576,0.004408844167659298,0.07473861420698924,0.954786138685281]
App.tsx:110 episode: 95
ave: 1.095535391383735
max: 1.2469593016029723
elite: [0.011486723707817337,0.9999023787113144,0.14925929376430935,0.23382924614849476,0.03527802947509162,0.02295502809416261,0.04911051755599827,0.0774833508207271,0.041828707872381576,0.004408844167659298,0.07473861420698924,0.954786138685281]
App.tsx:110 episode: 96
ave: 1.0877514338566998
max: 1.2490003817398843
elite: [0.011486723707817337,0.9999023787113144,0.14925929376430935,0.235121819654186,0.02532717892329761,0.02295502809416261,0.04911051755599827,0.0774833508207271,0.041828707872381576,0.004408844167659298,0.07473861420698924,0.954786138685281]
App.tsx:110 episode: 97
ave: 1.088372025498545
max: 1.2282002733947837
elite: [0.07216122995291285,0.9999023787113144,0.14925929376430935,0.23382924614849476,0.03527802947509162,0.02295502809416261,0.04911051755599827,0.0774833508207271,0.041828707872381576,0.004408844167659298,0.07473861420698924,0.954786138685281]
App.tsx:110 episode: 98
ave: 1.0911330421367729
max: 1.2623226639165432
elite: [0.011486723707817337,0.9999023787113144,0.14925929376430935,0.235121819654186,0.02532717892329761,0.02295502809416261,0.04911051755599827,0.0774833508207271,0.041828707872381576,0.004408844167659298,0.07473861420698924,0.954786138685281]
App.tsx:110 episode: 99
ave: 1.0903600484427942
max: 1.237748913316444
elite: [0.011486723707817337,0.9999023787113144,0.14925929376430935,0.23382924614849476,0.02532717892329761,0.02295502809416261,0.04911051755599827,0.0774833508207271,0.041828707872381576,0.004408844167659298,0.07473861420698924,0.9634847154385482]